1.290000000000000000e+02 7.000000000000000000e+00 3.000000000000000000e+00 1.000000000000000000e+01 1.836170212765957501e+02 1.243489361702128377e+02 5.978723404255319451e+00 4.744680851063829863e+00
8.600000000000000000e+01 0.000000000000000000e+00 0.000000000000000000e+00 0.000000000000000000e+00 1.844905660377358458e+02 1.370094339622641542e+02 3.792452830188679069e+00 3.245283018867924696e+00
1.450000000000000000e+02 1.000000000000000000e+01 6.000000000000000000e+00 1.600000000000000000e+01 1.822610619469026574e+02 1.234141592920352934e+02 5.150442477876105762e+00 5.061946902654867131e+00
9.700000000000000000e+01 1.000000000000000000e+01 8.000000000000000000e+00 1.800000000000000000e+01 1.841948051948051841e+02 1.401662337662337734e+02 5.792207792207792139e+00 5.584415584415584277e+00
6.300000000000000000e+01 2.100000000000000000e+01 8.000000000000000000e+00 2.900000000000000000e+01 1.752395833333333428e+02 1.461197916666667709e+02 6.406250000000000000e+00 6.750000000000000000e+00
5.900000000000000000e+01 5.000000000000000000e+00 0.000000000000000000e+00 5.000000000000000000e+00 1.827516853932584979e+02 2.075741573033707823e+02 4.233333333333333393e+00 4.177777777777778034e+00
4.500000000000000000e+01 1.100000000000000000e+01 3.000000000000000000e+00 1.400000000000000000e+01 1.872589285714285836e+02 1.410535714285714164e+02 6.473684210526315930e+00 6.666666666666666963e+00
4.200000000000000000e+01 1.300000000000000000e+01 3.000000000000000000e+00 1.600000000000000000e+01 1.715086206896551175e+02 9.705172413793103203e+01 6.649122807017543657e+00 7.175438596491227727e+00
7.600000000000000000e+01 3.000000000000000000e+00 0.000000000000000000e+00 3.000000000000000000e+00 1.845904255319148888e+02 1.511563829787233999e+02 4.280000000000000249e+00 3.830000000000000071e+00
6.400000000000000000e+01 1.000000000000000000e+01 6.000000000000000000e+00 1.600000000000000000e+01 1.776034482758620641e+02 1.493896551724138249e+02 6.050847457627118509e+00 6.169491525423729250e+00
5.100000000000000000e+01 1.500000000000000000e+01 2.100000000000000000e+01 3.600000000000000000e+01 1.879327868852458607e+02 1.351934426229508404e+02 5.795081967213114638e+00 5.688524590163934747e+00
3.000000000000000000e+01 2.400000000000000000e+01 9.000000000000000000e+00 3.300000000000000000e+01 1.824990654205607541e+02 1.356355140186915946e+02 6.289719626168224664e+00 6.635514018691588412e+00
6.600000000000000000e+01 6.000000000000000000e+00 4.000000000000000000e+00 1.000000000000000000e+01 1.839785714285714278e+02 1.407749999999999773e+02 4.577319587628865705e+00 4.505154639175257714e+00
3.700000000000000000e+01 2.700000000000000000e+01 5.000000000000000000e+00 3.200000000000000000e+01 1.803049999999999500e+02 1.289250000000000114e+02 6.490000000000000213e+00 7.009999999999999787e+00
6.000000000000000000e+01 1.400000000000000000e+01 1.000000000000000000e+01 2.400000000000000000e+01 1.881959183673469340e+02 1.886173469387755119e+02 6.336734693877550839e+00 6.295918367346938993e+00
4.100000000000000000e+01 2.300000000000000000e+01 6.000000000000000000e+00 2.900000000000000000e+01 1.911309352517984621e+02 1.414201438848921271e+02 6.647482014388489624e+00 6.705035971223021640e+00
6.200000000000000000e+01 1.500000000000000000e+01 5.000000000000000000e+00 2.000000000000000000e+01 1.808796296296296191e+02 1.422777777777777715e+02 5.287037037037037202e+00 5.379629629629629761e+00
3.200000000000000000e+01 6.000000000000000000e+00 1.000000000000000000e+00 7.000000000000000000e+00 1.782043478260869165e+02 1.111021739130434582e+02 4.173469387755101678e+00 3.979591836734694077e+00
5.800000000000000000e+01 9.000000000000000000e+00 8.000000000000000000e+00 1.700000000000000000e+01 1.762931034482758719e+02 1.287068965517241281e+02 6.086206896551724199e+00 5.724137931034483096e+00
5.300000000000000000e+01 1.100000000000000000e+01 6.000000000000000000e+00 1.700000000000000000e+01 1.866428571428571388e+02 1.592511904761904589e+02 5.804597701149424971e+00 5.586206896551724199e+00
8.700000000000000000e+01 1.500000000000000000e+01 8.000000000000000000e+00 2.300000000000000000e+01 1.775048076923076792e+02 1.514038461538461604e+02 5.990476190476190510e+00 5.885714285714286120e+00
5.500000000000000000e+01 5.000000000000000000e+00 2.000000000000000000e+00 7.000000000000000000e+00 1.797739999999999725e+02 1.234109999999999872e+02 4.762376237623762165e+00 4.643564356435643248e+00
5.200000000000000000e+01 1.100000000000000000e+01 6.000000000000000000e+00 1.700000000000000000e+01 1.745862068965517153e+02 1.106293103448275872e+02 6.534482758620689502e+00 6.568965517241379004e+00
3.400000000000000000e+01 1.600000000000000000e+01 7.000000000000000000e+00 2.300000000000000000e+01 1.759620253164557084e+02 1.411493670886076188e+02 6.924050632911392000e+00 7.569620253164557333e+00
8.420000000000000000e+02 1.500000000000000000e+01 9.000000000000000000e+00 2.400000000000000000e+01 1.873619047619047251e+02 1.796952380952381532e+02 7.482758620689654805e+00 6.551724137931034697e+00
5.400000000000000000e+01 4.000000000000000000e+00 2.000000000000000000e+00 6.000000000000000000e+00 1.840235294117646561e+02 1.446274509803921262e+02 5.038461538461538325e+00 4.673076923076923350e+00
4.700000000000000000e+01 1.200000000000000000e+01 1.100000000000000000e+01 2.300000000000000000e+01 1.830118811881188492e+02 1.340356435643564339e+02 5.138613861386138737e+00 5.346534653465346842e+00
4.600000000000000000e+01 6.000000000000000000e+00 5.000000000000000000e+00 1.100000000000000000e+01 1.838514285714285563e+02 1.730014285714285904e+02 4.599999999999999645e+00 4.542857142857142705e+00
4.300000000000000000e+01 7.000000000000000000e+00 4.000000000000000000e+00 1.100000000000000000e+01 1.827758241758241979e+02 1.451758241758241752e+02 5.153846153846154188e+00 4.967032967032967150e+00
3.600000000000000000e+01 8.000000000000000000e+00 4.000000000000000000e+00 1.200000000000000000e+01 1.850000000000000000e+02 1.398474576271186436e+02 5.627118644067796716e+00 5.677966101694915224e+00
2.500000000000000000e+01 1.200000000000000000e+01 3.000000000000000000e+00 1.500000000000000000e+01 1.785890410958904226e+02 1.242876712328767184e+02 6.040540540540540349e+00 6.689189189189189477e+00
2.100000000000000000e+01 9.000000000000000000e+00 4.000000000000000000e+00 1.300000000000000000e+01 1.896093750000000000e+02 1.250671874999999886e+02 5.294117647058823373e+00 4.882352941176471006e+00
2.800000000000000000e+01 3.000000000000000000e+01 1.000000000000000000e+01 4.000000000000000000e+01 1.932186915887850489e+02 1.716728971962616868e+02 6.616822429906542347e+00 6.448598130841121545e+00
1.500000000000000000e+01 1.300000000000000000e+01 7.000000000000000000e+00 2.000000000000000000e+01 1.851000000000000227e+02 1.298053191489361780e+02 5.950495049504950451e+00 5.702970297029702706e+00
2.700000000000000000e+01 1.400000000000000000e+01 3.000000000000000000e+00 1.700000000000000000e+01 1.912191780821917746e+02 1.519753424657534424e+02 4.797297297297297369e+00 5.067567567567567544e+00
2.400000000000000000e+01 7.000000000000000000e+00 3.000000000000000000e+00 1.000000000000000000e+01 1.847194444444444628e+02 1.638097222222222058e+02 4.705882352941176627e+00 4.494117647058823550e+00
4.000000000000000000e+01 2.300000000000000000e+01 1.000000000000000000e+01 3.300000000000000000e+01 1.773488372093023315e+02 1.211697674418604294e+02 6.574712643678161328e+00 7.321839080459770166e+00
2.200000000000000000e+01 6.000000000000000000e+00 1.100000000000000000e+01 1.700000000000000000e+01 1.904148936170212778e+02 1.438468085106383114e+02 5.250000000000000000e+00 4.645833333333333037e+00
3.500000000000000000e+01 1.500000000000000000e+01 8.000000000000000000e+00 2.300000000000000000e+01 1.820204545454545269e+02 1.267249999999999943e+02 6.397727272727272485e+00 6.818181818181818343e+00
1.000000000000000000e+01 2.000000000000000000e+01 1.500000000000000000e+01 3.500000000000000000e+01 1.866382978723404165e+02 1.615680851063829948e+02 7.010526315789473273e+00 7.242105263157895045e+00
2.600000000000000000e+01 1.400000000000000000e+01 4.000000000000000000e+00 1.800000000000000000e+01 1.832031250000000000e+02 1.431328125000000000e+02 6.230769230769230838e+00 7.169230769230769518e+00
2.000000000000000000e+01 1.400000000000000000e+01 4.000000000000000000e+00 1.800000000000000000e+01 1.828767123287671268e+02 1.637178082191780675e+02 5.621621621621621934e+00 5.648648648648648241e+00
3.300000000000000000e+01 3.300000000000000000e+01 1.000000000000000000e+01 4.300000000000000000e+01 1.850957983193277414e+02 1.112268907563025238e+02 6.512605042016806678e+00 7.344537815126050084e+00
2.300000000000000000e+01 1.600000000000000000e+01 9.000000000000000000e+00 2.500000000000000000e+01 1.900722891566265105e+02 1.512710843373494072e+02 6.813953488372092693e+00 7.127906976744186274e+00
5.000000000000000000e+01 1.500000000000000000e+01 5.000000000000000000e+00 2.000000000000000000e+01 1.837681159420289987e+02 1.300376811594203446e+02 6.681159420289855433e+00 6.884057971014493127e+00
2.900000000000000000e+01 2.000000000000000000e+01 1.100000000000000000e+01 3.100000000000000000e+01 1.826470588235294201e+02 1.298519607843137749e+02 5.422018348623852901e+00 5.284403669724770936e+00
3.800000000000000000e+01 6.000000000000000000e+00 4.000000000000000000e+00 1.000000000000000000e+01 1.888217391304347643e+02 1.588413043478260533e+02 5.554347826086956097e+00 5.630434782608695343e+00
1.600000000000000000e+01 1.400000000000000000e+01 8.000000000000000000e+00 2.200000000000000000e+01 1.856486486486486456e+02 1.497828828828828591e+02 5.414414414414414622e+00 5.684684684684684797e+00
3.100000000000000000e+01 1.100000000000000000e+01 1.600000000000000000e+01 2.700000000000000000e+01 1.801325000000000216e+02 1.580262500000000330e+02 7.412499999999999645e+00 6.062500000000000000e+00
1.100000000000000000e+01 1.700000000000000000e+01 6.000000000000000000e+00 2.300000000000000000e+01 1.807954128440366617e+02 1.377477064220183536e+02 5.607142857142856762e+00 5.669642857142856762e+00
9.000000000000000000e+00 1.800000000000000000e+01 1.800000000000000000e+01 3.600000000000000000e+01 1.750813008130081414e+02 1.382617886178861681e+02 6.504065040650406360e+00 6.040650406504065373e+00
6.000000000000000000e+00 6.000000000000000000e+00 8.000000000000000000e+00 1.400000000000000000e+01 1.838085714285714403e+02 1.671571428571428442e+02 7.802816901408450967e+00 5.253521126760563043e+00
1.700000000000000000e+01 1.500000000000000000e+01 1.300000000000000000e+01 2.800000000000000000e+01 1.823517241379310292e+02 1.488091954022987977e+02 6.784090909090909172e+00 7.136363636363636687e+00
1.400000000000000000e+01 2.400000000000000000e+01 1.200000000000000000e+01 3.600000000000000000e+01 1.910438016528925971e+02 1.579669421487602960e+02 6.046511627906976827e+00 5.852713178294573382e+00
1.800000000000000000e+01 8.000000000000000000e+00 7.000000000000000000e+00 1.500000000000000000e+01 1.797931623931624188e+02 1.356196581196581121e+02 6.418803418803419092e+00 5.923076923076923350e+00
8.000000000000000000e+00 1.500000000000000000e+01 4.000000000000000000e+00 1.900000000000000000e+01 1.805544554455445621e+02 1.521227722772277389e+02 7.485436893203883280e+00 5.087378640776699434e+00
1.300000000000000000e+01 2.400000000000000000e+01 2.200000000000000000e+01 4.600000000000000000e+01 1.859900990099010016e+02 1.521366336633663821e+02 7.247524752475247745e+00 7.277227722772277474e+00
5.000000000000000000e+00 1.100000000000000000e+01 9.000000000000000000e+00 2.000000000000000000e+01 1.959029126213592917e+02 1.585466019417475820e+02 7.543689320388349273e+00 5.398058252427184733e+00
1.900000000000000000e+01 5.000000000000000000e+00 6.000000000000000000e+00 1.100000000000000000e+01 1.801150684931506589e+02 1.440191780821918144e+02 7.466666666666666785e+00 4.226666666666666572e+00
4.000000000000000000e+00 4.000000000000000000e+00 2.000000000000000000e+00 6.000000000000000000e+00 1.911048780487805061e+02 2.007500000000000000e+02 9.129411764705881893e+00 3.399999999999999911e+00
7.000000000000000000e+00 1.700000000000000000e+01 7.000000000000000000e+00 2.400000000000000000e+01 1.843405797101449366e+02 1.551884057971014386e+02 7.510791366906475197e+00 4.978417266187050494e+00
3.000000000000000000e+00 6.000000000000000000e+00 2.000000000000000000e+00 8.000000000000000000e+00 1.791197183098591665e+02 1.208154929577464713e+02 7.930555555555555358e+00 3.916666666666666519e+00
1.200000000000000000e+01 1.000000000000000000e+01 2.000000000000000000e+00 1.200000000000000000e+01 1.763030303030303116e+02 1.297474747474747403e+02 6.686868686868686851e+00 5.555555555555555358e+00
2.000000000000000000e+00 4.000000000000000000e+00 3.000000000000000000e+00 7.000000000000000000e+00 1.850204545454544984e+02 1.417272727272727195e+02 8.876404494382022392e+00 2.898876404494381998e+00
7.000000000000000000e+01 1.400000000000000000e+01 1.300000000000000000e+01 2.700000000000000000e+01 1.887450381679389011e+02 1.537877862595420595e+02 5.166666666666666963e+00 5.152173913043478493e+00
6.500000000000000000e+01 5.000000000000000000e+00 3.000000000000000000e+00 8.000000000000000000e+00 1.775250000000000057e+02 1.506750000000000114e+02 5.799999999999999822e+00 5.250000000000000000e+00
1.160000000000000000e+02 1.000000000000000000e+00 4.000000000000000000e+00 5.000000000000000000e+00 1.717451612903225850e+02 1.560000000000000000e+02 4.296875000000000000e+00 3.796875000000000000e+00
3.900000000000000000e+01 1.200000000000000000e+01 1.300000000000000000e+01 2.500000000000000000e+01 1.840942857142857179e+02 1.485057142857141628e+02 6.549999999999999822e+00 5.599999999999999645e+00
5.600000000000000000e+01 4.000000000000000000e+00 1.000000000000000000e+00 5.000000000000000000e+00 1.784719101123595522e+02 1.753393258426965531e+02 3.955555555555555713e+00 4.022222222222222143e+00
6.900000000000000000e+01 3.000000000000000000e+00 3.000000000000000000e+00 6.000000000000000000e+00 1.906330645161290249e+02 1.764596774193548185e+02 3.960317460317460458e+00 3.333333333333333481e+00
6.700000000000000000e+01 4.000000000000000000e+00 1.000000000000000000e+00 5.000000000000000000e+00 1.779326086956521635e+02 1.740728260869564963e+02 4.357894736842105488e+00 4.073684210526315574e+00
7.100000000000000000e+01 1.200000000000000000e+01 4.000000000000000000e+00 1.600000000000000000e+01 1.896021505376344010e+02 1.267924731182795739e+02 5.430107526881720048e+00 5.010752688172043001e+00
1.000000000000000000e+00 4.000000000000000000e+00 1.000000000000000000e+00 5.000000000000000000e+00 2.033421052631578902e+02 2.068684210526315894e+02 8.493506493506494337e+00 3.012987012987013102e+00
1.670000000000000000e+02 3.000000000000000000e+00 3.000000000000000000e+00 6.000000000000000000e+00 1.931694915254237230e+02 1.535423728813559308e+02 4.135593220338982690e+00 3.711864406779660897e+00
1.070000000000000000e+02 9.000000000000000000e+00 1.000000000000000000e+01 1.900000000000000000e+01 1.871361344537814944e+02 1.363487394957982701e+02 5.117647058823528994e+00 4.840336134453781192e+00
1.380000000000000000e+02 7.000000000000000000e+00 4.000000000000000000e+00 1.100000000000000000e+01 1.757329545454545325e+02 1.288306818181818016e+02 4.347826086956521507e+00 3.239130434782608869e+00
1.520000000000000000e+02 9.000000000000000000e+00 1.200000000000000000e+01 2.100000000000000000e+01 1.871975308641975175e+02 1.547456790123456472e+02 6.876543209876543550e+00 7.086419753086420137e+00
8.800000000000000000e+01 3.000000000000000000e+00 3.000000000000000000e+00 6.000000000000000000e+00 1.842467532467532578e+02 1.345181818181819722e+02 4.870129870129869865e+00 4.519480519480519654e+00
7.900000000000000000e+01 0.000000000000000000e+00 2.000000000000000000e+00 2.000000000000000000e+00 1.879010204081633049e+02 1.454755102040816439e+02 3.696969696969696795e+00 3.323232323232323093e+00
8.100000000000000000e+01 5.000000000000000000e+00 6.000000000000000000e+00 1.100000000000000000e+01 1.838595238095238074e+02 1.639047619047618696e+02 4.662921348314606362e+00 4.483146067415730407e+00
9.600000000000000000e+01 1.400000000000000000e+01 6.000000000000000000e+00 2.000000000000000000e+01 1.848425925925925810e+02 1.496268518518517965e+02 5.418181818181817988e+00 5.509090909090908816e+00
8.760000000000000000e+02 1.300000000000000000e+01 4.000000000000000000e+00 1.700000000000000000e+01 1.814956521739130437e+02 1.524782608695652186e+02 8.397058823529411242e+00 5.397058823529412130e+00
8.900000000000000000e+01 2.600000000000000000e+01 2.100000000000000000e+01 4.700000000000000000e+01 1.849112781954887055e+02 1.350714285714286120e+02 6.768656716417910779e+00 6.753731343283582156e+00
8.750000000000000000e+02 1.600000000000000000e+01 1.400000000000000000e+01 3.000000000000000000e+01 1.881662650602409883e+02 1.370795180722892610e+02 6.804878048780487632e+00 6.756097560975609539e+00
7.200000000000000000e+01 7.000000000000000000e+00 4.000000000000000000e+00 1.100000000000000000e+01 1.837101123595505783e+02 1.489797752808987923e+02 5.311111111111110894e+00 4.655555555555555891e+00
2.510000000000000000e+02 1.000000000000000000e+00 2.000000000000000000e+00 3.000000000000000000e+00 1.765422535211267530e+02 1.472183098591549424e+02 3.661971830985915499e+00 2.619718309859154992e+00
1.630000000000000000e+02 8.000000000000000000e+00 4.000000000000000000e+00 1.200000000000000000e+01 1.773975903614457934e+02 1.216349397590361292e+02 4.681818181818181657e+00 4.602272727272727515e+00
1.050000000000000000e+02 1.100000000000000000e+01 5.000000000000000000e+00 1.600000000000000000e+01 1.807187500000000000e+02 1.550578124999999829e+02 5.468750000000000000e+00 5.718750000000000000e+00
7.800000000000000000e+01 1.300000000000000000e+01 7.000000000000000000e+00 2.000000000000000000e+01 1.815810606060606176e+02 1.262348484848484844e+02 5.174242424242423866e+00 5.083333333333333037e+00
8.740000000000000000e+02 2.000000000000000000e+00 1.000000000000000000e+00 3.000000000000000000e+00 1.802961538461538851e+02 1.251205128205128432e+02 4.675324675324675106e+00 4.740259740259740617e+00
8.400000000000000000e+01 1.000000000000000000e+00 1.000000000000000000e+00 2.000000000000000000e+00 1.791690721649484317e+02 1.236443298969072941e+02 3.500000000000000000e+00 3.000000000000000000e+00
1.490000000000000000e+02 4.000000000000000000e+00 6.000000000000000000e+00 1.000000000000000000e+01 1.787926829268292579e+02 1.498536585365853568e+02 4.463414634146341875e+00 4.439024390243902829e+00
1.990000000000000000e+02 0.000000000000000000e+00 2.000000000000000000e+00 2.000000000000000000e+00 1.916250000000000000e+02 1.678291666666665947e+02 3.613333333333333286e+00 2.413333333333333552e+00
8.780000000000000000e+02 3.000000000000000000e+00 3.000000000000000000e+00 6.000000000000000000e+00 1.838454545454545439e+02 1.349818181818181984e+02 9.939393939393939448e+00 2.590909090909090828e+00
9.200000000000000000e+01 6.000000000000000000e+00 1.100000000000000000e+01 1.700000000000000000e+01 1.877329545454545325e+02 1.631897727272727252e+02 4.840909090909090828e+00 4.659090909090909172e+00
7.400000000000000000e+01 3.000000000000000000e+00 4.000000000000000000e+00 7.000000000000000000e+00 1.822783216783216744e+02 1.130447552447552226e+02 3.874125874125874169e+00 3.454545454545454586e+00
7.850000000000000000e+02 1.000000000000000000e+00 0.000000000000000000e+00 1.000000000000000000e+00 1.738586666666667782e+02 9.838133333333331620e+01 3.693333333333333357e+00 3.240000000000000213e+00
9.900000000000000000e+01 4.000000000000000000e+00 5.000000000000000000e+00 9.000000000000000000e+00 1.762010416666666117e+02 1.188000000000000540e+02 4.770833333333333037e+00 4.395833333333333037e+00
2.250000000000000000e+02 2.000000000000000000e+00 3.000000000000000000e+00 5.000000000000000000e+00 1.875642857142857167e+02 1.488047619047617900e+02 4.678571428571428825e+00 4.261904761904761862e+00
2.870000000000000000e+02 8.000000000000000000e+00 6.000000000000000000e+00 1.400000000000000000e+01 1.751724137931034591e+02 1.212011494252874400e+02 4.781609195402299228e+00 4.666666666666666963e+00
1.040000000000000000e+02 0.000000000000000000e+00 0.000000000000000000e+00 0.000000000000000000e+00 1.746417910447761130e+02 1.068731343283582049e+02 3.585714285714285854e+00 3.100000000000000089e+00
1.018000000000000000e+03 1.300000000000000000e+01 5.000000000000000000e+00 1.800000000000000000e+01 1.882272727272727195e+02 1.449727272727272975e+02 6.907692307692308020e+00 6.569230769230768985e+00
2.220000000000000000e+02 2.000000000000000000e+00 4.000000000000000000e+00 6.000000000000000000e+00 1.758488372093023315e+02 1.328500000000000227e+02 4.302325581395348486e+00 4.220930232558139927e+00
1.350000000000000000e+02 9.000000000000000000e+00 4.000000000000000000e+00 1.300000000000000000e+01 1.816666666666666572e+02 1.377851851851850995e+02 5.305555555555555358e+00 5.240740740740740478e+00
2.260000000000000000e+02 5.000000000000000000e+00 2.000000000000000000e+00 7.000000000000000000e+00 1.831277777777777942e+02 1.440231481481481524e+02 4.148148148148147918e+00 3.759259259259259078e+00
2.050000000000000000e+02 0.000000000000000000e+00 0.000000000000000000e+00 0.000000000000000000e+00 1.860240000000000578e+02 1.615173333333332835e+02 3.693333333333333357e+00 2.973333333333333162e+00
1.750000000000000000e+02 4.000000000000000000e+00 8.000000000000000000e+00 1.200000000000000000e+01 1.756769230769230603e+02 1.576681318681318942e+02 5.230769230769230838e+00 4.824175824175823912e+00
1.680000000000000000e+02 3.000000000000000000e+00 2.000000000000000000e+00 5.000000000000000000e+00 1.767215189873417671e+02 1.575746835443037810e+02 3.873417721518987555e+00 3.962025316455696000e+00
1.087000000000000000e+03 7.000000000000000000e+00 1.000000000000000000e+01 1.700000000000000000e+01 1.842758620689655231e+02 1.717999999999999545e+02 6.672131147540983243e+00 5.983606557377049384e+00
1.320000000000000000e+02 2.000000000000000000e+00 1.000000000000000000e+00 3.000000000000000000e+00 1.760957983193277414e+02 1.120722689075629859e+02 3.608333333333333393e+00 3.316666666666666874e+00
7.840000000000000000e+02 2.000000000000000000e+00 2.000000000000000000e+00 4.000000000000000000e+00 1.757294871794871938e+02 1.578923076923076394e+02 4.307692307692307487e+00 3.871794871794871806e+00
8.650000000000000000e+02 1.200000000000000000e+01 4.000000000000000000e+00 1.600000000000000000e+01 1.831726027397260452e+02 1.440712328767124006e+02 6.270270270270270174e+00 6.108108108108107892e+00
1.009000000000000000e+03 2.000000000000000000e+01 1.100000000000000000e+01 3.100000000000000000e+01 1.839961165048543421e+02 1.390116504854368884e+02 6.669902912621359370e+00 6.592233009708738045e+00
1.284000000000000000e+03 1.800000000000000000e+01 1.200000000000000000e+01 3.000000000000000000e+01 1.706500000000000057e+02 1.427620000000000289e+02 6.929292929292929060e+00 7.444444444444444642e+00
6.800000000000000000e+01 1.000000000000000000e+00 1.000000000000000000e+00 2.000000000000000000e+00 1.940679245283018872e+02 1.810839622641509550e+02 3.943396226415094130e+00 3.707547169811320931e+00
2.040000000000000000e+02 2.000000000000000000e+00 3.000000000000000000e+00 5.000000000000000000e+00 1.828157894736842195e+02 1.328535087719298247e+02 3.894736842105263275e+00 3.745614035087719174e+00
9.500000000000000000e+01 0.000000000000000000e+00 0.000000000000000000e+00 0.000000000000000000e+00 1.772951219512195280e+02 1.432414634146341257e+02 3.500000000000000000e+00 2.987804878048780477e+00
1.204000000000000000e+03 1.200000000000000000e+01 5.000000000000000000e+00 1.700000000000000000e+01 1.765468750000000000e+02 1.352843750000000398e+02 6.158730158730159054e+00 6.825396825396825129e+00
1.010000000000000000e+02 0.000000000000000000e+00 0.000000000000000000e+00 0.000000000000000000e+00 1.835117021276595608e+02 1.279893617021276526e+02 3.563829787234042534e+00 3.170212765957446610e+00
1.300000000000000000e+02 2.000000000000000000e+00 1.000000000000000000e+00 3.000000000000000000e+00 1.769254901960784423e+02 1.461176470588235361e+02 4.352941176470587870e+00 3.941176470588235503e+00
2.834000000000000000e+03 1.000000000000000000e+01 4.000000000000000000e+00 1.400000000000000000e+01 1.805500000000000114e+02 1.543259999999999650e+02 6.653061224489795755e+00 7.081632653061224580e+00
1.187000000000000000e+03 9.000000000000000000e+00 7.000000000000000000e+00 1.600000000000000000e+01 1.889365079365079225e+02 1.526349206349205758e+02 6.656716417910447881e+00 6.791044776119402826e+00
1.130000000000000000e+02 1.200000000000000000e+01 6.000000000000000000e+00 1.800000000000000000e+01 1.788156862745098579e+02 1.118598039215686839e+02 5.019417475728155331e+00 4.640776699029125929e+00
1.030000000000000000e+02 0.000000000000000000e+00 0.000000000000000000e+00 0.000000000000000000e+00 1.894362068965517381e+02 1.556810344827587187e+02 3.448275862068965303e+00 3.181034482758620552e+00
1.111000000000000000e+03 7.000000000000000000e+00 3.000000000000000000e+00 1.000000000000000000e+01 1.844000000000000057e+02 1.200480000000000302e+02 8.269999999999999574e+00 4.410000000000000142e+00
8.640000000000000000e+02 8.000000000000000000e+00 6.000000000000000000e+00 1.400000000000000000e+01 1.908024096385541952e+02 1.617710843373493219e+02 4.963855421686747427e+00 5.108433734939758608e+00
2.160000000000000000e+02 0.000000000000000000e+00 0.000000000000000000e+00 0.000000000000000000e+00 1.875714285714285836e+02 1.453857142857143572e+02 3.678571428571428381e+00 3.333333333333333481e+00
1.123000000000000000e+03 4.000000000000000000e+00 1.000000000000000000e+00 5.000000000000000000e+00 1.910321428571428726e+02 1.408285714285716210e+02 1.023214285714285765e+01 2.125000000000000000e+00
1.220000000000000000e+02 6.000000000000000000e+00 2.000000000000000000e+00 8.000000000000000000e+00 1.877970297029702920e+02 1.578722772277227477e+02 4.141509433962264453e+00 4.084905660377358139e+00
1.421000000000000000e+03 3.000000000000000000e+00 5.000000000000000000e+00 8.000000000000000000e+00 1.936842105263157805e+02 1.418684210526315894e+02 7.026315789473684070e+00 5.210526315789473450e+00
2.400000000000000000e+02 0.000000000000000000e+00 0.000000000000000000e+00 0.000000000000000000e+00 1.815812500000000398e+02 1.184739583333333286e+02 3.604166666666666519e+00 3.229166666666666519e+00
2.818000000000000000e+03 1.100000000000000000e+01 9.000000000000000000e+00 2.000000000000000000e+01 1.860357142857142776e+02 1.396476190476191164e+02 6.523809523809523725e+00 6.488095238095238138e+00
1.227000000000000000e+03 1.600000000000000000e+01 9.000000000000000000e+00 2.500000000000000000e+01 1.695794392523364422e+02 1.389476635514017175e+02 6.514018691588785437e+00 5.841121495327103119e+00
1.235000000000000000e+03 1.100000000000000000e+01 1.100000000000000000e+01 2.200000000000000000e+01 1.871100000000000136e+02 1.645180000000000291e+02 8.000000000000000000e+00 4.919999999999999929e+00
2.830000000000000000e+03 7.000000000000000000e+00 0.000000000000000000e+00 7.000000000000000000e+00 2.027611940298507420e+02 1.461522388059701711e+02 8.000000000000000000e+00 4.880597014925372790e+00
1.226000000000000000e+03 1.000000000000000000e+01 1.100000000000000000e+01 2.100000000000000000e+01 1.793644859813084054e+02 1.624897196261682097e+02 7.504672897196261516e+00 5.953271028037383061e+00
1.243000000000000000e+03 3.000000000000000000e+00 1.000000000000000000e+00 4.000000000000000000e+00 1.787317073170731589e+02 1.318780487804878021e+02 5.878048780487804770e+00 5.829268292682926678e+00
1.402000000000000000e+03 7.000000000000000000e+00 3.000000000000000000e+00 1.000000000000000000e+01 1.889736842105263293e+02 1.343789473684210520e+02 6.131578947368421240e+00 5.736842105263157521e+00
9.240000000000000000e+02 3.000000000000000000e+00 4.000000000000000000e+00 7.000000000000000000e+00 1.856111111111111143e+02 1.223555555555555401e+02 4.576271186440678207e+00 3.830508474576271194e+00
2.060000000000000000e+02 7.000000000000000000e+00 3.000000000000000000e+00 1.000000000000000000e+01 1.813759259259259125e+02 1.249564814814814753e+02 4.546296296296296724e+00 4.231481481481481843e+00
1.470000000000000000e+02 0.000000000000000000e+00 0.000000000000000000e+00 0.000000000000000000e+00 1.807162162162162247e+02 1.366621621621622467e+02 3.684684684684684797e+00 3.189189189189189033e+00
7.950000000000000000e+02 8.000000000000000000e+00 4.000000000000000000e+00 1.200000000000000000e+01 1.840990990990991065e+02 1.393594594594594298e+02 5.225225225225225145e+00 5.126126126126125726e+00
2.390000000000000000e+02 0.000000000000000000e+00 1.000000000000000000e+00 1.000000000000000000e+00 1.787967032967032992e+02 1.216813186813187144e+02 3.615384615384615419e+00 3.417582417582417431e+00
8.980000000000000000e+02 2.000000000000000000e+00 3.000000000000000000e+00 5.000000000000000000e+00 1.802298507462686246e+02 1.245656716417910701e+02 4.763888888888889284e+00 4.111111111111110716e+00
1.360000000000000000e+02 0.000000000000000000e+00 0.000000000000000000e+00 0.000000000000000000e+00 1.820260869565217661e+02 1.179583850931677205e+02 3.433526011560693814e+00 3.433526011560693814e+00
5.988000000000000000e+03 7.000000000000000000e+00 4.000000000000000000e+00 1.100000000000000000e+01 1.781294117647058783e+02 1.372294117647060148e+02 4.559523809523809312e+00 4.678571428571428825e+00
5.984000000000000000e+03 5.000000000000000000e+00 2.000000000000000000e+00 7.000000000000000000e+00 1.729952380952380224e+02 1.272190476190476147e+02 5.357142857142856762e+00 4.880952380952381375e+00
5.967000000000000000e+03 1.600000000000000000e+01 1.200000000000000000e+01 2.800000000000000000e+01 1.760537634408602230e+02 1.356666666666664582e+02 6.978494623655913998e+00 6.903225806451612989e+00
3.710000000000000000e+02 6.000000000000000000e+00 5.000000000000000000e+00 1.100000000000000000e+01 1.796944444444444571e+02 1.120925925925926094e+02 4.740740740740740478e+00 4.564814814814814881e+00
6.432000000000000000e+03 4.000000000000000000e+00 4.000000000000000000e+00 8.000000000000000000e+00 1.975636363636363626e+02 1.755490909090909213e+02 7.836363636363635976e+00 3.872727272727272574e+00
3.000000000000000000e+02 0.000000000000000000e+00 1.000000000000000000e+00 1.000000000000000000e+00 1.769929577464788792e+02 1.481676056338026797e+02 3.697183098591549477e+00 3.415492957746478986e+00
2.847000000000000000e+03 7.000000000000000000e+00 6.000000000000000000e+00 1.300000000000000000e+01 1.825714285714285836e+02 1.310000000000000284e+02 6.224489795918366930e+00 5.428571428571428825e+00
1.219000000000000000e+03 7.000000000000000000e+00 9.000000000000000000e+00 1.600000000000000000e+01 1.856666666666666572e+02 1.333129629629629846e+02 7.148148148148147918e+00 4.518518518518518157e+00
5.985000000000000000e+03 5.000000000000000000e+00 8.000000000000000000e+00 1.300000000000000000e+01 1.767183908045977034e+02 1.186183908045976949e+02 5.620689655172413701e+00 5.517241379310345195e+00
6.018000000000000000e+03 5.000000000000000000e+00 9.000000000000000000e+00 1.400000000000000000e+01 1.857343750000000000e+02 1.433218750000000057e+02 6.484375000000000000e+00 5.375000000000000000e+00
1.136000000000000000e+03 7.000000000000000000e+00 3.000000000000000000e+00 1.000000000000000000e+01 1.865166666666666799e+02 1.311333333333333258e+02 5.683333333333333570e+00 5.066666666666666430e+00
1.032000000000000000e+03 1.000000000000000000e+01 5.000000000000000000e+00 1.500000000000000000e+01 1.877560975609756042e+02 1.417756097560975661e+02 4.865853658536585691e+00 4.878048780487804770e+00
2.470000000000000000e+02 1.000000000000000000e+00 0.000000000000000000e+00 1.000000000000000000e+00 1.782235294117647015e+02 1.089682352941176617e+02 3.870588235294117663e+00 3.611764705882352988e+00
6.012000000000000000e+03 1.000000000000000000e+00 1.000000000000000000e+00 2.000000000000000000e+00 1.861750000000000114e+02 1.502475000000002296e+02 3.562500000000000000e+00 3.237499999999999822e+00
1.031000000000000000e+03 4.000000000000000000e+00 1.000000000000000000e+00 5.000000000000000000e+00 1.758025316455696725e+02 1.388367088607595292e+02 4.278481012658227556e+00 4.012658227848101333e+00
6.010000000000000000e+03 8.000000000000000000e+00 8.000000000000000000e+00 1.600000000000000000e+01 1.812758620689655231e+02 1.597965517241379132e+02 5.844827586206896797e+00 5.465517241379310498e+00
6.473000000000000000e+03 1.200000000000000000e+01 1.300000000000000000e+01 2.500000000000000000e+01 1.885168539325842687e+02 1.485438202247191271e+02 7.292134831460674427e+00 6.516853932584269593e+00
6.467000000000000000e+03 1.300000000000000000e+01 9.000000000000000000e+00 2.200000000000000000e+01 1.845348314606741269e+02 1.750516853932587651e+02 6.213483146067416030e+00 6.134831460674157633e+00
6.468000000000000000e+03 1.200000000000000000e+01 1.100000000000000000e+01 2.300000000000000000e+01 1.826629213483145975e+02 1.483887640449440823e+02 7.764044943820224809e+00 5.426966292134831171e+00
1.106000000000000000e+03 3.000000000000000000e+00 3.000000000000000000e+00 6.000000000000000000e+00 1.854098360655737565e+02 1.367737704918032478e+02 5.338709677419354982e+00 4.709677419354838968e+00
6.527000000000000000e+03 3.000000000000000000e+00 2.000000000000000000e+00 5.000000000000000000e+00 1.939000000000000057e+02 1.473600000000000136e+02 6.349999999999999645e+00 3.500000000000000000e+00
1.011000000000000000e+03 3.000000000000000000e+00 5.000000000000000000e+00 8.000000000000000000e+00 1.860000000000000000e+02 1.094895522388059277e+02 5.179104477611939927e+00 4.522388059701492935e+00
5.977000000000000000e+03 1.000000000000000000e+00 1.000000000000000000e+00 2.000000000000000000e+00 1.870571428571427930e+02 1.362857142857142776e+02 4.049999999999999822e+00 3.299999999999999822e+00
6.620000000000000000e+03 4.000000000000000000e+00 3.000000000000000000e+00 7.000000000000000000e+00 1.881333333333333258e+02 1.587066666666667345e+02 6.700000000000000178e+00 4.966666666666666785e+00
1.104000000000000000e+03 2.000000000000000000e+00 0.000000000000000000e+00 2.000000000000000000e+00 1.814180327868852487e+02 1.010672131147540114e+02 4.483870967741935054e+00 3.822580645161290480e+00
8.130000000000000000e+02 1.600000000000000000e+01 9.000000000000000000e+00 2.500000000000000000e+01 1.845677966101694949e+02 1.318101694915253859e+02 5.500000000000000000e+00 5.491525423728813138e+00
6.766000000000000000e+03 3.000000000000000000e+00 1.000000000000000000e+00 4.000000000000000000e+00 1.819615384615384528e+02 1.771730769230769909e+02 6.280000000000000249e+00 5.160000000000000142e+00
6.034000000000000000e+03 2.000000000000000000e+00 4.000000000000000000e+00 6.000000000000000000e+00 1.660638297872340559e+02 1.288851063829785915e+02 4.691489361702127603e+00 4.457446808510638014e+00
2.960000000000000000e+02 3.000000000000000000e+00 2.000000000000000000e+00 5.000000000000000000e+00 1.973732394366197127e+02 1.600084507042253392e+02 4.027972027972028357e+00 4.097902097902097474e+00
9.000000000000000000e+02 7.000000000000000000e+00 6.000000000000000000e+00 1.300000000000000000e+01 1.787471264367815991e+02 1.545678160919540289e+02 5.010869565217391575e+00 4.739130434782608425e+00
5.944000000000000000e+03 1.200000000000000000e+01 8.000000000000000000e+00 2.000000000000000000e+01 1.891263157894736935e+02 1.540168421052631516e+02 6.610526315789473806e+00 6.294736842105263186e+00
9.290000000000000000e+02 4.000000000000000000e+00 2.000000000000000000e+00 6.000000000000000000e+00 1.768059701492537386e+02 1.147074626865671547e+02 4.305555555555555358e+00 4.041666666666666963e+00
6.599000000000000000e+03 1.100000000000000000e+01 7.000000000000000000e+00 1.800000000000000000e+01 1.916097560975609895e+02 1.562609756097560876e+02 6.829268292682926678e+00 5.609756097560975263e+00
7.115000000000000000e+03 4.000000000000000000e+00 2.000000000000000000e+00 6.000000000000000000e+00 1.782884615384615472e+02 1.386076923076923890e+02 5.653846153846154188e+00 4.807692307692307487e+00
1.127000000000000000e+03 0.000000000000000000e+00 1.000000000000000000e+00 1.000000000000000000e+00 1.776376811594202820e+02 1.344072463768115426e+02 3.681159420289854989e+00 2.652173913043478048e+00
1.152000000000000000e+03 0.000000000000000000e+00 0.000000000000000000e+00 0.000000000000000000e+00 1.891964285714285836e+02 1.082964285714285069e+02 3.767857142857142794e+00 3.160714285714285587e+00
6.771000000000000000e+03 5.000000000000000000e+00 1.000000000000000000e+00 6.000000000000000000e+00 1.862249999999999943e+02 1.456249999999999716e+02 6.625000000000000000e+00 6.525000000000000355e+00
6.769000000000000000e+03 1.000000000000000000e+00 4.000000000000000000e+00 5.000000000000000000e+00 1.897279999999999802e+02 2.484079999999999870e+02 5.360000000000000320e+00 4.280000000000000249e+00
7.138000000000000000e+03 0.000000000000000000e+00 1.000000000000000000e+00 1.000000000000000000e+00 1.773928571428571388e+02 1.462214285714286177e+02 4.333333333333333037e+00 4.222222222222222321e+00
1.141000000000000000e+03 9.000000000000000000e+00 1.000000000000000000e+01 1.900000000000000000e+01 1.884600000000000080e+02 1.418240000000000123e+02 4.940000000000000391e+00 4.839999999999999858e+00
5.110000000000000000e+02 0.000000000000000000e+00 0.000000000000000000e+00 0.000000000000000000e+00 1.833794117647058783e+02 1.426686274509803241e+02 3.588235294117647189e+00 3.578431372549019773e+00
3.650000000000000000e+02 0.000000000000000000e+00 0.000000000000000000e+00 0.000000000000000000e+00 1.862500000000000000e+02 1.397432203389830931e+02 3.661016949152542388e+00 3.474576271186440746e+00
1.053000000000000000e+03 0.000000000000000000e+00 0.000000000000000000e+00 0.000000000000000000e+00 1.816853448275862206e+02 1.504698275862068328e+02 3.594827586206896353e+00 3.275862068965517349e+00
6.463000000000000000e+03 2.000000000000000000e+01 5.000000000000000000e+00 2.500000000000000000e+01 1.900224719101123583e+02 1.438719101123595294e+02 6.314606741573033588e+00 5.910112359550561578e+00
6.620000000000000000e+02 2.000000000000000000e+00 1.000000000000000000e+00 3.000000000000000000e+00 1.833020833333333428e+02 1.304000000000000909e+02 3.760416666666666519e+00 3.541666666666666519e+00
2.930000000000000000e+03 2.000000000000000000e+00 0.000000000000000000e+00 2.000000000000000000e+00 1.894391304347825837e+02 1.275826086956521124e+02 4.847826086956521507e+00 3.543478260869565410e+00
7.121000000000000000e+03 8.000000000000000000e+00 9.000000000000000000e+00 1.700000000000000000e+01 1.928815789473684106e+02 2.061868421052633380e+02 4.986842105263157521e+00 4.789473684210526550e+00
2.831000000000000000e+03 1.000000000000000000e+00 3.000000000000000000e+00 4.000000000000000000e+00 1.801632653061223834e+02 1.169224489795918487e+02 4.408163265306122014e+00 3.591836734693877542e+00
6.552000000000000000e+03 5.000000000000000000e+00 5.000000000000000000e+00 1.000000000000000000e+01 1.788799999999999955e+02 1.152919999999999732e+02 4.679999999999999716e+00 4.533333333333333215e+00
6.572000000000000000e+03 1.600000000000000000e+01 7.000000000000000000e+00 2.300000000000000000e+01 1.851309523809523796e+02 1.928071428571430204e+02 6.178571428571428825e+00 6.380952380952381375e+00
1.178400000000000000e+04 1.600000000000000000e+01 8.000000000000000000e+00 2.400000000000000000e+01 1.870000000000000000e+02 1.453859374999999829e+02 6.777777777777777679e+00 5.841269841269840946e+00
4.980000000000000000e+03 1.000000000000000000e+01 7.000000000000000000e+00 1.700000000000000000e+01 1.851785714285714164e+02 1.209928571428572752e+02 5.404761904761905100e+00 5.023809523809523725e+00
6.614000000000000000e+03 9.000000000000000000e+00 6.000000000000000000e+00 1.500000000000000000e+01 1.771463414634146432e+02 1.312878048780488029e+02 6.146341463414634276e+00 5.792682926829268553e+00
6.497000000000000000e+03 6.000000000000000000e+00 6.000000000000000000e+00 1.200000000000000000e+01 1.873281250000000000e+02 1.593343750000000512e+02 5.406250000000000000e+00 5.140625000000000000e+00
6.042000000000000000e+03 1.000000000000000000e+00 3.000000000000000000e+00 4.000000000000000000e+00 1.721851851851851904e+02 1.300111111111111484e+02 4.203703703703703276e+00 3.907407407407407440e+00
2.842000000000000000e+03 4.000000000000000000e+00 4.000000000000000000e+00 8.000000000000000000e+00 1.887058823529411882e+02 1.690470588235293690e+02 5.105882352941176094e+00 5.400000000000000355e+00
2.879000000000000000e+03 9.000000000000000000e+00 8.000000000000000000e+00 1.700000000000000000e+01 1.828000000000000114e+02 1.186620000000001909e+02 5.169999999999999929e+00 5.059999999999999609e+00
6.753000000000000000e+03 9.000000000000000000e+00 8.000000000000000000e+00 1.700000000000000000e+01 1.942784810126582329e+02 1.766227848101263476e+02 6.341772151898734222e+00 6.050632911392405333e+00
6.767000000000000000e+03 3.000000000000000000e+00 6.000000000000000000e+00 9.000000000000000000e+00 1.950000000000000000e+02 1.708127659574468282e+02 5.744680851063829863e+00 5.234042553191489588e+00
1.172800000000000000e+04 8.000000000000000000e+00 8.000000000000000000e+00 1.600000000000000000e+01 1.853538461538461490e+02 1.593507692307694299e+02 7.030769230769230660e+00 6.707692307692307843e+00
2.820000000000000000e+03 0.000000000000000000e+00 0.000000000000000000e+00 0.000000000000000000e+00 1.847931034482758719e+02 1.514310344827586334e+02 3.706896551724137900e+00 3.310344827586206851e+00
2.835000000000000000e+03 0.000000000000000000e+00 0.000000000000000000e+00 0.000000000000000000e+00 1.792698412698412653e+02 1.067269841269841208e+02 4.063492063492063266e+00 3.682539682539682335e+00
1.134000000000000000e+03 4.000000000000000000e+00 3.000000000000000000e+00 7.000000000000000000e+00 1.806060606060605949e+02 1.611045454545453595e+02 3.954545454545454586e+00 3.151515151515151381e+00
8.900000000000000000e+03 7.000000000000000000e+00 5.000000000000000000e+00 1.200000000000000000e+01 1.824084507042253449e+02 1.746253521126762678e+02 5.267605633802816989e+00 5.507042253521126973e+00
6.654000000000000000e+03 4.000000000000000000e+00 5.000000000000000000e+00 9.000000000000000000e+00 1.790999999999999943e+02 1.681737500000000125e+02 4.474999999999999645e+00 3.687500000000000000e+00
6.480000000000000000e+03 5.000000000000000000e+00 7.000000000000000000e+00 1.200000000000000000e+01 1.856477272727272805e+02 1.478863636363636260e+02 6.261363636363636687e+00 4.818181818181818343e+00
6.770000000000000000e+03 4.000000000000000000e+00 6.000000000000000000e+00 1.000000000000000000e+01 1.832416666666666742e+02 1.850263888888889028e+02 5.083333333333333037e+00 5.027777777777777679e+00
2.851000000000000000e+03 1.100000000000000000e+01 6.000000000000000000e+00 1.700000000000000000e+01 1.811299999999999955e+02 1.791719999999999970e+02 4.889999999999999680e+00 4.690000000000000391e+00
1.266000000000000000e+03 3.000000000000000000e+00 3.000000000000000000e+00 6.000000000000000000e+00 1.730518867924528195e+02 1.360424528301887221e+02 4.056603773584905426e+00 3.792452830188679069e+00
1.178600000000000000e+04 9.000000000000000000e+00 6.000000000000000000e+00 1.500000000000000000e+01 1.912741935483871032e+02 1.834709677419357092e+02 7.000000000000000000e+00 6.209677419354838968e+00
2.832000000000000000e+03 1.200000000000000000e+01 7.000000000000000000e+00 1.900000000000000000e+01 1.846225490196078454e+02 1.150049019607843093e+02 4.833333333333333037e+00 4.519607843137254832e+00
1.054000000000000000e+03 0.000000000000000000e+00 0.000000000000000000e+00 0.000000000000000000e+00 1.881059322033898411e+02 1.497084745762711862e+02 3.533898305084745672e+00 3.237288135593220151e+00
6.642000000000000000e+03 1.000000000000000000e+00 3.000000000000000000e+00 4.000000000000000000e+00 1.825432098765432158e+02 1.319197530864196324e+02 5.234567901234568055e+00 4.123456790123456450e+00
1.190000000000000000e+03 0.000000000000000000e+00 0.000000000000000000e+00 0.000000000000000000e+00 1.786074766355140184e+02 1.509158878504670440e+02 3.450450450450450290e+00 3.288288288288288452e+00
1.215000000000000000e+03 2.000000000000000000e+00 1.000000000000000000e+00 3.000000000000000000e+00 1.861066666666666549e+02 9.352800000000003422e+01 4.333333333333333037e+00 4.213333333333332931e+00
1.172600000000000000e+04 1.000000000000000000e+01 8.000000000000000000e+00 1.800000000000000000e+01 1.815846153846153754e+02 1.651738461538463696e+02 6.553846153846153655e+00 6.292307692307692157e+00
9.079000000000000000e+03 1.000000000000000000e+01 3.000000000000000000e+00 1.300000000000000000e+01 1.758285714285714221e+02 1.502314285714283812e+02 6.514285714285714235e+00 5.671428571428571708e+00
6.512000000000000000e+03 0.000000000000000000e+00 0.000000000000000000e+00 0.000000000000000000e+00 1.924029850746268551e+02 1.778044776119403139e+02 3.537313432835821114e+00 2.940298507462686395e+00
7.109000000000000000e+03 0.000000000000000000e+00 0.000000000000000000e+00 0.000000000000000000e+00 1.716447368421052602e+02 1.375921052631578902e+02 3.789473684210526105e+00 2.736842105263157965e+00
1.185000000000000000e+04 0.000000000000000000e+00 0.000000000000000000e+00 0.000000000000000000e+00 1.843846153846153868e+02 1.402307692307692264e+02 3.769230769230769162e+00 2.076923076923077094e+00
7.239000000000000000e+03 8.000000000000000000e+00 7.000000000000000000e+00 1.500000000000000000e+01 1.907866666666666617e+02 1.408533333333335236e+02 6.106666666666666465e+00 5.639999999999999680e+00
1.172900000000000000e+04 2.000000000000000000e+00 0.000000000000000000e+00 2.000000000000000000e+00 1.820000000000000000e+02 1.305290322580645181e+02 4.645161290322580960e+00 3.677419354838709520e+00
6.491000000000000000e+03 4.000000000000000000e+00 2.000000000000000000e+00 6.000000000000000000e+00 1.930340909090909065e+02 1.434340909090908838e+02 5.829545454545454142e+00 5.545454545454545858e+00
6.531000000000000000e+03 8.000000000000000000e+00 5.000000000000000000e+00 1.300000000000000000e+01 1.731250000000000000e+02 1.285545454545456039e+02 4.886363636363636687e+00 4.931818181818181657e+00
8.904000000000000000e+03 8.000000000000000000e+00 1.100000000000000000e+01 1.900000000000000000e+01 1.799565217391304373e+02 1.591826086956523056e+02 5.507246376811593791e+00 5.217391304347826164e+00
1.193400000000000000e+04 7.000000000000000000e+00 5.000000000000000000e+00 1.200000000000000000e+01 1.815471698113207424e+02 1.658943396226415814e+02 6.903846153846154188e+00 6.846153846153845812e+00
1.241000000000000000e+03 5.000000000000000000e+00 5.000000000000000000e+00 1.000000000000000000e+01 1.819056603773584868e+02 1.123301886792452962e+02 4.443396226415094574e+00 4.377358490566037652e+00
1.405000000000000000e+03 2.000000000000000000e+00 2.000000000000000000e+00 4.000000000000000000e+00 1.919842105263157919e+02 1.129557894736841774e+02 4.326315789473683893e+00 3.568421052631578938e+00
6.622000000000000000e+03 2.000000000000000000e+00 1.000000000000000000e+00 3.000000000000000000e+00 1.830999999999999943e+02 1.750944444444444628e+02 3.583333333333333481e+00 3.347222222222222321e+00
1.137000000000000000e+03 0.000000000000000000e+00 0.000000000000000000e+00 0.000000000000000000e+00 1.807073170731707421e+02 1.219658536585366164e+02 3.646341463414634276e+00 2.975609756097560954e+00
6.928000000000000000e+03 4.000000000000000000e+00 4.000000000000000000e+00 8.000000000000000000e+00 1.781594202898550634e+02 1.672956521739130267e+02 5.550724637681159201e+00 4.260869565217391575e+00
1.197100000000000000e+04 9.000000000000000000e+00 4.000000000000000000e+00 1.300000000000000000e+01 1.866923076923076792e+02 1.591576923076921446e+02 5.596153846153845812e+00 5.096153846153845812e+00
1.172400000000000000e+04 1.000000000000000000e+01 8.000000000000000000e+00 1.800000000000000000e+01 1.803898305084745743e+02 1.407033898305084847e+02 6.338983050847457612e+00 5.186440677966102086e+00
1.097000000000000000e+03 1.000000000000000000e+00 1.000000000000000000e+00 2.000000000000000000e+00 1.849375000000000000e+02 1.123712500000000034e+02 3.698795180722891374e+00 3.578313253012048278e+00
7.125000000000000000e+03 1.000000000000000000e+00 1.000000000000000000e+00 2.000000000000000000e+00 1.878809523809523796e+02 1.383261904761905043e+02 4.190476190476190688e+00 3.095238095238095344e+00
8.903000000000000000e+03 0.000000000000000000e+00 1.000000000000000000e+00 1.000000000000000000e+00 1.751267605633802873e+02 1.139591549295774513e+02 3.661971830985915499e+00 2.366197183098591506e+00
1.198900000000000000e+04 6.000000000000000000e+00 3.000000000000000000e+00 9.000000000000000000e+00 1.827826086956521863e+02 1.548173913043479502e+02 4.844444444444444109e+00 5.377777777777778212e+00
6.594000000000000000e+03 3.000000000000000000e+00 1.000000000000000000e+00 4.000000000000000000e+00 1.910865853658536651e+02 1.356792682926829059e+02 4.536585365853658125e+00 3.621951219512195230e+00
2.929000000000000000e+03 2.000000000000000000e+00 3.000000000000000000e+00 5.000000000000000000e+00 1.810816326530612344e+02 1.227663265306122469e+02 4.377551020408163573e+00 4.010204081632653406e+00
1.172300000000000000e+04 8.000000000000000000e+00 7.000000000000000000e+00 1.500000000000000000e+01 1.916307692307692321e+02 1.424769230769230717e+02 6.076923076923076650e+00 5.323076923076922817e+00
6.600000000000000000e+03 1.000000000000000000e+00 3.000000000000000000e+00 4.000000000000000000e+00 1.774871794871794748e+02 1.448128205128205366e+02 4.012820512820512775e+00 3.666666666666666519e+00
1.184000000000000000e+04 1.300000000000000000e+01 7.000000000000000000e+00 2.000000000000000000e+01 1.777586206896551744e+02 1.449275862068967058e+02 5.672413793103448398e+00 5.534482758620689502e+00
9.077000000000000000e+03 0.000000000000000000e+00 0.000000000000000000e+00 0.000000000000000000e+00 1.938285714285714221e+02 1.439171428571427782e+02 4.099999999999999645e+00 3.799999999999999822e+00
7.240000000000000000e+03 4.000000000000000000e+00 5.000000000000000000e+00 9.000000000000000000e+00 1.773866666666666561e+02 1.617066666666664787e+02 5.653333333333333321e+00 5.053333333333333677e+00
9.400000000000000000e+02 1.000000000000000000e+00 0.000000000000000000e+00 1.000000000000000000e+00 1.817777777777777715e+02 1.360351851851853553e+02 3.495575221238937935e+00 3.522123893805309880e+00
1.205500000000000000e+04 6.000000000000000000e+00 5.000000000000000000e+00 1.100000000000000000e+01 1.830952380952381020e+02 1.453523809523810257e+02 7.317073170731707599e+00 6.560975609756097171e+00
1.198700000000000000e+04 1.000000000000000000e+00 4.000000000000000000e+00 5.000000000000000000e+00 1.890000000000000000e+02 1.445000000000000000e+02 6.666666666666666963e+00 4.944444444444444642e+00
6.559000000000000000e+03 8.000000000000000000e+00 4.000000000000000000e+00 1.200000000000000000e+01 1.848255813953488484e+02 1.190325581395349843e+02 5.000000000000000000e+00 4.883720930232557933e+00
1.192700000000000000e+04 5.000000000000000000e+00 3.000000000000000000e+00 8.000000000000000000e+00 1.918461538461538396e+02 1.589653846153846359e+02 5.865384615384614975e+00 4.000000000000000000e+00
8.154000000000000000e+03 1.000000000000000000e+00 1.000000000000000000e+00 2.000000000000000000e+00 1.792222222222222285e+02 1.326222222222224048e+02 3.819444444444444642e+00 3.513888888888888840e+00
2.909000000000000000e+03 1.000000000000000000e+00 0.000000000000000000e+00 1.000000000000000000e+00 1.794040404040404155e+02 1.442585858585856329e+02 3.797979797979798011e+00 3.535353535353535470e+00
1.210700000000000000e+04 7.000000000000000000e+00 4.000000000000000000e+00 1.100000000000000000e+01 1.900000000000000000e+02 1.830000000000000000e+02 7.216216216216215784e+00 5.783783783783784216e+00
8.899000000000000000e+03 6.000000000000000000e+00 5.000000000000000000e+00 1.100000000000000000e+01 1.830281690140845114e+02 1.156943661971830153e+02 5.211267605633802980e+00 4.690140845070422948e+00
1.058000000000000000e+03 1.000000000000000000e+00 0.000000000000000000e+00 1.000000000000000000e+00 1.800000000000000000e+02 1.380413461538461490e+02 3.798076923076922906e+00 3.480769230769230838e+00
1.198500000000000000e+04 9.000000000000000000e+00 7.000000000000000000e+00 1.600000000000000000e+01 1.789583333333333428e+02 1.350958333333332178e+02 6.645833333333333037e+00 5.770833333333333037e+00
1.184500000000000000e+04 5.000000000000000000e+00 7.000000000000000000e+00 1.200000000000000000e+01 1.930000000000000000e+02 1.450327586206897479e+02 5.844827586206896797e+00 5.344827586206896797e+00
6.013000000000000000e+03 0.000000000000000000e+00 1.000000000000000000e+00 1.000000000000000000e+00 1.764000000000000057e+02 1.107977777777778954e+02 3.822222222222222410e+00 3.566666666666666874e+00
7.153000000000000000e+03 4.000000000000000000e+00 4.000000000000000000e+00 8.000000000000000000e+00 1.753486842105263293e+02 1.075131578947370343e+02 4.947368421052631859e+00 4.407894736842105310e+00
1.202600000000000000e+04 8.000000000000000000e+00 6.000000000000000000e+00 1.400000000000000000e+01 1.838260869565217490e+02 1.560347826086955365e+02 6.478260869565217739e+00 5.760869565217391575e+00
7.143000000000000000e+03 2.000000000000000000e+00 3.000000000000000000e+00 5.000000000000000000e+00 1.837697368421052602e+02 1.900868421052631732e+02 4.526315789473684070e+00 4.000000000000000000e+00
1.204300000000000000e+04 7.000000000000000000e+00 5.000000000000000000e+00 1.200000000000000000e+01 1.760000000000000000e+02 1.489285714285714164e+02 6.809523809523809312e+00 5.142857142857143238e+00
1.205100000000000000e+04 8.000000000000000000e+00 7.000000000000000000e+00 1.500000000000000000e+01 1.730000000000000000e+02 1.028761904761904304e+02 6.595238095238094900e+00 5.833333333333333037e+00
1.209400000000000000e+04 4.000000000000000000e+00 5.000000000000000000e+00 9.000000000000000000e+00 1.850000000000000000e+02 1.207999999999999972e+02 6.200000000000000178e+00 4.525000000000000355e+00
6.596000000000000000e+03 3.000000000000000000e+00 3.000000000000000000e+00 6.000000000000000000e+00 1.841707317073170600e+02 1.376048780487805061e+02 4.902439024390243816e+00 4.804878048780487632e+00
1.214400000000000000e+04 4.000000000000000000e+00 3.000000000000000000e+00 7.000000000000000000e+00 1.750000000000000000e+02 1.530000000000000000e+02 6.599999999999999645e+00 6.571428571428571175e+00
1.221000000000000000e+04 2.000000000000000000e+00 0.000000000000000000e+00 2.000000000000000000e+00 1.790000000000000000e+02 1.490000000000000000e+02 8.551724137931033809e+00 5.724137931034483096e+00
1.214000000000000000e+04 0.000000000000000000e+00 0.000000000000000000e+00 0.000000000000000000e+00 1.800000000000000000e+02 2.020000000000000000e+02 3.828571428571428736e+00 3.257142857142857117e+00
1.213000000000000000e+04 3.000000000000000000e+00 3.000000000000000000e+00 6.000000000000000000e+00 1.820000000000000000e+02 1.500000000000000000e+02 7.114285714285713880e+00 5.714285714285714413e+00
1.211300000000000000e+04 7.000000000000000000e+00 3.000000000000000000e+00 1.000000000000000000e+01 1.840000000000000000e+02 1.540000000000000000e+02 6.777777777777777679e+00 5.444444444444444642e+00
7.127000000000000000e+03 1.000000000000000000e+00 2.000000000000000000e+00 3.000000000000000000e+00 1.895263157894736707e+02 1.718552631578944840e+02 3.986842105263157965e+00 3.434210526315789380e+00
1.178500000000000000e+04 6.000000000000000000e+00 5.000000000000000000e+00 1.100000000000000000e+01 1.829516129032257936e+02 1.099612903225805383e+02 5.274193548387096975e+00 4.774193548387096975e+00
1.194300000000000000e+04 1.000000000000000000e+00 0.000000000000000000e+00 1.000000000000000000e+00 1.847307692307692264e+02 1.433153846153847439e+02 4.134615384615385025e+00 3.019230769230769162e+00
1.222600000000000000e+04 2.000000000000000000e+00 1.000000000000000000e+00 3.000000000000000000e+00 1.720000000000000000e+02 1.130000000000000000e+02 4.620689655172413701e+00 2.034482758620689502e+00
1.219100000000000000e+04 1.000000000000000000e+00 4.000000000000000000e+00 5.000000000000000000e+00 1.730000000000000000e+02 1.490000000000000000e+02 7.500000000000000000e+00 4.031250000000000000e+00
1.202400000000000000e+04 1.000000000000000000e+00 1.000000000000000000e+00 2.000000000000000000e+00 1.778260869565217490e+02 1.599652173913044919e+02 5.021739130434782261e+00 3.173913043478260754e+00
1.223900000000000000e+04 0.000000000000000000e+00 3.000000000000000000e+00 3.000000000000000000e+00 1.820000000000000000e+02 1.580000000000000000e+02 7.344827586206896797e+00 5.137931034482758896e+00
1.229200000000000000e+04 3.000000000000000000e+00 2.000000000000000000e+00 5.000000000000000000e+00 1.850000000000000000e+02 1.710000000000000000e+02 7.173913043478260754e+00 6.347826086956521507e+00
1.194600000000000000e+04 3.000000000000000000e+00 2.000000000000000000e+00 5.000000000000000000e+00 1.800000000000000000e+02 1.178653846153846132e+02 5.307692307692307487e+00 4.211538461538461675e+00
1.204000000000000000e+04 3.000000000000000000e+00 1.000000000000000000e+00 4.000000000000000000e+00 1.820000000000000000e+02 1.395609756097560989e+02 5.146341463414634276e+00 4.268292682926829507e+00
1.227300000000000000e+04 2.000000000000000000e+00 2.000000000000000000e+00 4.000000000000000000e+00 1.850000000000000000e+02 1.670000000000000000e+02 6.666666666666666963e+00 6.333333333333333037e+00
1.186800000000000000e+04 2.000000000000000000e+00 4.000000000000000000e+00 6.000000000000000000e+00 1.683620689655172384e+02 1.089310344827586192e+02 5.120689655172413701e+00 4.137931034482758896e+00
1.194700000000000000e+04 1.000000000000000000e+00 1.000000000000000000e+00 2.000000000000000000e+00 1.880000000000000000e+02 1.316052631578947398e+02 4.210526315789473450e+00 3.342105263157894690e+00
1.229100000000000000e+04 3.000000000000000000e+00 4.000000000000000000e+00 7.000000000000000000e+00 1.890000000000000000e+02 1.580000000000000000e+02 7.913043478260869179e+00 5.000000000000000000e+00
1.207700000000000000e+04 6.000000000000000000e+00 0.000000000000000000e+00 6.000000000000000000e+00 1.860000000000000000e+02 1.258926829268291669e+02 5.170731707317073322e+00 4.487804878048780921e+00
1.220300000000000000e+04 2.000000000000000000e+00 6.000000000000000000e+00 8.000000000000000000e+00 1.740000000000000000e+02 1.100000000000000000e+02 5.733333333333333393e+00 4.400000000000000355e+00
1.242500000000000000e+04 1.000000000000000000e+00 2.000000000000000000e+00 3.000000000000000000e+00 1.870000000000000000e+02 1.720000000000000000e+02 7.000000000000000000e+00 6.500000000000000000e+00
1.197200000000000000e+04 0.000000000000000000e+00 0.000000000000000000e+00 0.000000000000000000e+00 1.792115384615384528e+02 1.489038461538461604e+02 3.942307692307692513e+00 3.288461538461538325e+00
1.185500000000000000e+04 0.000000000000000000e+00 2.000000000000000000e+00 2.000000000000000000e+00 1.807068965517241281e+02 1.247500000000000000e+02 4.879310344827586299e+00 3.689655172413793149e+00
1.191800000000000000e+04 1.000000000000000000e+00 2.000000000000000000e+00 3.000000000000000000e+00 1.810000000000000000e+02 1.590888888888890449e+02 4.055555555555555358e+00 3.277777777777777679e+00
1.240600000000000000e+04 4.000000000000000000e+00 2.000000000000000000e+00 6.000000000000000000e+00 1.870000000000000000e+02 1.820000000000000000e+02 6.588235294117646745e+00 5.470588235294117752e+00
1.241200000000000000e+04 2.000000000000000000e+00 1.000000000000000000e+00 3.000000000000000000e+00 1.690000000000000000e+02 9.500000000000000000e+01 6.705882352941176627e+00 4.235294117647058876e+00
1.207600000000000000e+04 1.000000000000000000e+00 0.000000000000000000e+00 1.000000000000000000e+00 1.830000000000000000e+02 1.196250000000000000e+02 4.174999999999999822e+00 2.850000000000000089e+00
1.237000000000000000e+04 2.000000000000000000e+00 1.000000000000000000e+00 3.000000000000000000e+00 1.800000000000000000e+02 1.150000000000000000e+02 6.529411764705882248e+00 4.588235294117646745e+00
1.232000000000000000e+04 1.000000000000000000e+00 0.000000000000000000e+00 1.000000000000000000e+00 1.760000000000000000e+02 1.260000000000000000e+02 4.434782608695652328e+00 3.086956521739130377e+00
1.225500000000000000e+04 2.000000000000000000e+00 3.000000000000000000e+00 5.000000000000000000e+00 1.820000000000000000e+02 1.280000000000000000e+02 4.821428571428571175e+00 3.500000000000000000e+00
1.242700000000000000e+04 1.000000000000000000e+00 1.000000000000000000e+00 2.000000000000000000e+00 1.830000000000000000e+02 1.680000000000000000e+02 6.437500000000000000e+00 3.062500000000000000e+00
1.201500000000000000e+04 0.000000000000000000e+00 0.000000000000000000e+00 0.000000000000000000e+00 1.790000000000000000e+02 1.310851063829787222e+02 3.787234042553191404e+00 2.702127659574467877e+00
1.223100000000000000e+04 1.000000000000000000e+00 1.000000000000000000e+00 2.000000000000000000e+00 1.840000000000000000e+02 9.400000000000000000e+01 5.071428571428571175e+00 2.785714285714285587e+00
7.111000000000000000e+03 1.000000000000000000e+00 0.000000000000000000e+00 1.000000000000000000e+00 1.782894736842105203e+02 1.263881578947368922e+02 3.973684210526315930e+00 3.289473684210526105e+00
1.198000000000000000e+04 2.000000000000000000e+00 0.000000000000000000e+00 2.000000000000000000e+00 1.847346938775510239e+02 1.262775510204080547e+02 4.000000000000000000e+00 3.020408163265305923e+00
1.227000000000000000e+04 1.000000000000000000e+00 0.000000000000000000e+00 1.000000000000000000e+00 1.860000000000000000e+02 1.470000000000000000e+02 4.799999999999999822e+00 3.000000000000000000e+00
1.247000000000000000e+04 1.000000000000000000e+00 2.000000000000000000e+00 3.000000000000000000e+00 1.740000000000000000e+02 1.460000000000000000e+02 6.000000000000000000e+00 3.181818181818181657e+00
1.236200000000000000e+04 0.000000000000000000e+00 0.000000000000000000e+00 0.000000000000000000e+00 1.860000000000000000e+02 1.260000000000000000e+02 4.833333333333333037e+00 2.555555555555555358e+00
1.236700000000000000e+04 1.000000000000000000e+00 1.000000000000000000e+00 2.000000000000000000e+00 1.800000000000000000e+02 1.260000000000000000e+02 4.333333333333333037e+00 2.500000000000000000e+00
1.207500000000000000e+04 0.000000000000000000e+00 0.000000000000000000e+00 0.000000000000000000e+00 1.770000000000000000e+02 1.200731707317073216e+02 3.780487804878048586e+00 3.000000000000000000e+00
1.228500000000000000e+04 0.000000000000000000e+00 0.000000000000000000e+00 0.000000000000000000e+00 1.800000000000000000e+02 1.350000000000000000e+02 4.333333333333333037e+00 2.875000000000000000e+00
