10/03/19 15:00

File 'pandas1.py' not found!

-------------------------------------------------------------------------------

10/07/19 12:56

File 'pandas1.py' not found!

-------------------------------------------------------------------------------

10/07/19 19:56

ModuleNotFoundError while loading 'pandas1.py': No module named 'google'

-------------------------------------------------------------------------------

10/08/19 14:25

Problem 1 (5 points):
Score += 5

Problem 2 (10 points):
Should return a 48 by 7 array
Score += 0

Problem 3 (10 points):
Score += 10

Problem 4 (5 points):
Score += 5

Problem 5 (15 points):
Question 2 Incorrect.
	Correct response: [911706 909023 891407 859030 862220 855856 860853]
	Student response: [911706 909023 891407 859030 862220 860853 855856]
Score += 10

Code Quality (5 points):
comment your code
Score += 4

Total score: 34/50 = 68.0%

-------------------------------------------------------------------------------

10/10/19 14:56

Problem 1 (5 points):
Score += 5

Problem 2 (10 points):
Score += 10

Problem 3 (10 points):
Score += 10

Problem 4 (5 points):
Score += 5

Problem 5 (15 points):
Question 2 Incorrect.
	Correct response: [911706 909023 891407 859030 862220 855856 860853]
	Student response: [911706 909023 891407 862220 860853 859030 855856]
Score += 10

Code Quality (5 points):
Score += 5

Total score: 50/50 = 100.0%

Great job!

-------------------------------------------------------------------------------

