03/27/20 09:45

14.10 (3 points):
Score += 1

14.12 (3 points):
Score += 0

14.13 (3 points):
Score += 0

Completion (1 points):
Score += 0

Total score: 1/10 = 10.0%

-------------------------------------------------------------------------------

