11/06/19 10:17

6.2 (3 points):
does not compare be and did not complete problem. To do quadratic, you want to add a column to X containing x^2
Score += 1

6.6 (3 points):
0
Score += 0

Code Completion (1 points):
Score += 0

Total score: 1/7 = 14.29%

-------------------------------------------------------------------------------

