01/15/20 10:58

8.12 (3 points):
accuracy analysis?
Score += 2

8.14 (3 points):
Score += 3

8.17 (3 points):
Score += 3

Completion (1 points):
Score += 1

Total score: 9/10 = 90.0%

Great job!

-------------------------------------------------------------------------------

