04/04/20 22:46

File 'pytorchIntro.ipynb' not found!

-------------------------------------------------------------------------------

04/13/20 15:24

Problem 1 (10 points):
Score += 10

Problem 2 (10 points):
Score += 10

Problem 3 (5 points):
need to include screenshot of tb or plot separately
Score += 4

Problem 4 (10 points):
Score += 0

Code Quality (5 points):
comment code
Score += 4

Total score: 28/40 = 70.0%

-------------------------------------------------------------------------------

